<svg width="891" height="120" xmlns="http://www.w3.org/2000/svg" version="1.1">

 <g>
  <title>Layer 1</title>
  <path id="svg_1" stroke-linecap="round" fill="#f08c21" d="m-6,30l16.7,-3.3c16.6,-3.4 50,-10 83.3,-13.9c33.3,-3.8 66.7,-4.8 100,4.9c33.3,9.6 66.7,30 100,29.6c33.3,-0.3 66.7,-21.3 100,-33c33.3,-11.6 66.7,-14 100,-11.5c33.3,2.5 66.7,9.9 100,18.5c33.3,8.7 66.7,18.7 100,26c33.3,7.4 66.7,12 100,4.4c33.3,-7.7 66.7,-27.7 83.3,-37.7l16.7,-10l0,121l-16.7,0c-16.6,0 -50,0 -83.3,0c-33.3,0 -66.7,0 -100,0c-33.3,0 -66.7,0 -100,0c-33.3,0 -66.7,0 -100,0c-33.3,0 -66.7,0 -100,0c-33.3,0 -66.7,0 -100,0c-33.3,0 -66.7,0 -100,0c-33.3,0 -66.7,0 -100,0c-33.3,0 -66.7,0 -83.3,0l-16.7,0l0,-95z"/>
 </g>
</svg>